…
flattenCorrMatrix(cor_default)

flattenCorrMatrix(cor_default) %>%
  arrange(desc(cor)) %>% 
  filter(cor > 0.90)

# # A tibble: 190 × 3
# row    column   cor
# <chr>  <chr>  <dbl>
# 1 nsale  tr     1    
# 2 nsale  opex   0.994
# 3 opex   tr     0.994
# 4 cogs   opex   0.989
# 5 ebit   ebitda 0.980
# 6 cogs   nsale  0.978
# 7 cogs   tr     0.978
# 8 ta     tl     0.969
# 9 ebitda gp     0.925
# 10 ebitda ta     0.924
# # ℹ 180 more rows
# # ℹ Use `print(n = ...)` to see more rows
```
…
